^D:\CONSOLEAPPLICATION4\DEBUG\CONSOLEAPPLICATION4.OBJ
D:\CONSOLEAPPLICATION4\DEBUG\CONSOLEAPPLICATION4.EXE
D:\CONSOLEAPPLICATION4\DEBUG\CONSOLEAPPLICATION4.ILK
D:\CONSOLEAPPLICATION4\DEBUG\CONSOLEAPPLICATION4.PDB
